rtl/datapath/rtl/exe_stage/tb/tb_ls_queue/ls_queue.vcd
$date
	Sat Oct 26 17:51:59 2019
$end
$version
	ModelSim Version 10.5b
$end
$timescale
	1ns
$end

$scope module tb_ls_queue $end

$scope module load_store_queue_inst $end
$var wire 1 ! clk_i $end
$var wire 1 " rstn_i $end
$var reg 122 # instruction_i [121:0] $end
$var wire 1 $ flush_i $end
$var wire 1 % read_head_i $end
$var reg 122 & instruction_o [121:0] $end
$var reg 3 ' ls_queue_entry_o [2:0] $end
$var reg 1 ( full_o $end
$var reg 1 ) empty_o $end
$var reg 3 * head [2:0] $end
$var reg 3 + tail [2:0] $end
$var reg 4 , num [3:0] $end
$var reg 1 - write_enable $end
$var reg 1 . read_enable $end
$var integer 32 / i $end
$upscope $end
$upscope $end
$enddefinitions $end
#0
$dumpvars
b0 #
bx0000000000000000000000000000000000000000000000000000000000000000000000000000000000000000000000000000000000000000000000000 &
bx '
0(
1)
b0 *
b0 +
b0 ,
0-
0.
b1000 /
1!
0"
0$
0%
$end
#1
0!
#2
1!
b0 &
1"
#3
0!
#4
1!
b0 '
#5
0!
#6
1!
#7
0!
#8
1!
#9
0!
b10000000000000000000000000000000000000001000000000000000000000000000000000000000000000000000000000000000101010000000100001 #
1-
#10
1!
b1 *
b1 ,
0)
#11
0!
b10000000000000000000000000000000000000010000000000000000000000000000000000000000000000000000000000000001001010000000100001 #
#12
1!
b1 '
b10 *
b10 ,
#13
0!
b10000000000000000000000000000000000000011000000000000000000000000000000000000000000000000000000000000001101010000000100001 #
#14
1!
b10 '
b11 *
b11 ,
#15
0!
b10000000000000000000000000000000000000100000000000000000000000000000000000000000000000000000000000000010001010000000100001 #
#16
1!
b11 '
b100 *
b100 ,
#17
0!
b10000000000000000000000000000000000000101000000000000000000000000000000000000000000000000000000000000010101010000000100001 #
#18
1!
b100 '
b101 *
b101 ,
#19
0!
b10000000000000000000000000000000000000110000000000000000000000000000000000000000000000000000000000000011001010000000100001 #
#20
1!
b101 '
b110 *
b110 ,
#21
0!
b10000000000000000000000000000000000000111000000000000000000000000000000000000000000000000000000000000011101010000000100001 #
#22
1!
b110 '
b111 *
b111 ,
#23
0!
b10000000000000000000000000000000000001000000000000000000000000000000000000000000000000000000000000000100001010000000100001 #
#24
1!
b111 '
b0 *
b1000 ,
0-
1(
#25
0!
#26
1!
b0 '
#27
0!
b1000000000000000000000000000000000000000000000000000000000000000100001010000000100001 #
1%
1.
#28
1!
b1000000000000000000000000000000000000000000000000000000000000000000000000000000000 &
b1000000000000000000000000000000000000000000000000000000000000000100000000000000000 &
b1000000000000000000000000000000000000000000000000000000000000000100000000000000001 &
b1000000000000000000000000000000000000000000000000000000000000000100000000000100001 &
b1000000000000000000000000000000000000000000000000000000000000000100010000000100001 &
b1000000000000000000000000000000000000000000000000000000000000000101010000000100001 &
b10000000000000000000000000000000000000001000000000000000000000000000000000000000000000000000000000000000101010000000100001 &
b1 +
b111 ,
0(
#29
0!
0%
0.
#30
1!
b10000000000000000000000000000000000000000000000000000000000000000000000000000000000000000000000000000000101010000000100001 &
b10000000000000000000000000000000000000000000000000000000000000000000000000000000000000000000000000000000001010000000100001 &
b10000000000000000000000000000000000000000000000000000000000000000000000000000000000000000000000000000000001010000000100000 &
b10000000000000000000000000000000000000000000000000000000000000000000000000000000000000000000000000000000001010000000000000 &
b10000000000000000000000000000000000000000000000000000000000000000000000000000000000000000000000000000000001000000000000000 &
b10000000000000000000000000000000000000000000000000000000000000000000000000000000000000000000000000000000000000000000000000 &
b0 &
#31
0!
b10000000000000000000000000000000000001001000000000000000000000000000000000000000000000000000000000000100101010000000100001 #
1%
1-
1.
#32
1!
b10000000000000000000000000000000000000000000000000000000000000000000000000000000000 &
b10000000000000000000000000000000000000000000000000000000000000001000000000000000000 &
b10000000000000000000000000000000000000000000000000000000000000001000000000000000001 &
b10000000000000000000000000000000000000000000000000000000000000001000000000000100001 &
b10000000000000000000000000000000000000000000000000000000000000001000010000000100001 &
b10000000000000000000000000000000000000000000000000000000000000001001010000000100001 &
b10000000000000000000000000000000000000010000000000000000000000000000000000000000000000000000000000000001001010000000100001 &
b1 *
b10 +
#33
0!
b10000000000000000000000000000000000001010000000000000000000000000000000000000000000000000000000000000101001010000000100001 #
#34
1!
b10000000000000000000000000000000000000011000000000000000000000000000000000000000000000000000000000000001001010000000100001 &
b10000000000000000000000000000000000000011000000000000000000000000000000000000000000000000000000000000001101010000000100001 &
b1 '
b10 *
b11 +
#35
0!
b10000000000000000000000000000000000001011000000000000000000000000000000000000000000000000000000000000101101010000000100001 #
#36
1!
b10000000000000000000000000000000000000100000000000000000000000000000000000000000000000000000000000000001101010000000100001 &
b10000000000000000000000000000000000000100000000000000000000000000000000000000000000000000000000000000010001010000000100001 &
b10 '
b11 *
b100 +
#37
0!
b10000000000000000000000000000000000001100000000000000000000000000000000000000000000000000000000000000110001010000000100001 #
#38
1!
b10000000000000000000000000000000000000101000000000000000000000000000000000000000000000000000000000000010001010000000100001 &
b10000000000000000000000000000000000000101000000000000000000000000000000000000000000000000000000000000010101010000000100001 &
b11 '
b100 *
b101 +
#39
0!
b10000000000000000000000000000000000001101000000000000000000000000000000000000000000000000000000000000110101010000000100001 #
#40
1!
b10000000000000000000000000000000000000110000000000000000000000000000000000000000000000000000000000000010101010000000100001 &
b10000000000000000000000000000000000000110000000000000000000000000000000000000000000000000000000000000011001010000000100001 &
b100 '
b101 *
b110 +
#41
0!
b10000000000000000000000000000000000001110000000000000000000000000000000000000000000000000000000000000111001010000000100001 #
#42
1!
b10000000000000000000000000000000000000111000000000000000000000000000000000000000000000000000000000000011001010000000100001 &
b10000000000000000000000000000000000000111000000000000000000000000000000000000000000000000000000000000011101010000000100001 &
b101 '
b110 *
b111 +
#43
0!
b10000000000000000000000000000000000001111000000000000000000000000000000000000000000000000000000000000111101010000000100001 #
#44
1!
b10000000000000000000000000000000000001000000000000000000000000000000000000000000000000000000000000000011101010000000100001 &
b10000000000000000000000000000000000001000000000000000000000000000000000000000000000000000000000000000100001010000000100001 &
b110 '
b111 *
b0 +
#45
0!
b10000000000000000000000000000000000010000000000000000000000000000000000000000000000000000000000000001000001010000000100001 #
#46
1!
b10000000000000000000000000000000000001001000000000000000000000000000000000000000000000000000000000000100001010000000100001 &
b10000000000000000000000000000000000001001000000000000000000000000000000000000000000000000000000000000100101010000000100001 &
b111 '
b0 *
b1 +
#47
0!
b10000000000000000000000000000000000000000000000000000000000000001000001010000000100001 #
0-
#48
1!
b10000000000000000000000000000000000001010000000000000000000000000000000000000000000000000000000000000100101010000000100001 &
b10000000000000000000000000000000000001010000000000000000000000000000000000000000000000000000000000000101001010000000100001 &
b0 '
b10 +
b110 ,
#49
0!
#50
1!
b10000000000000000000000000000000000001011000000000000000000000000000000000000000000000000000000000000101001010000000100001 &
b10000000000000000000000000000000000001011000000000000000000000000000000000000000000000000000000000000101101010000000100001 &
b11 +
b101 ,
#51
0!
#52
1!
b10000000000000000000000000000000000001100000000000000000000000000000000000000000000000000000000000000101101010000000100001 &
b10000000000000000000000000000000000001100000000000000000000000000000000000000000000000000000000000000110001010000000100001 &
b100 +
b100 ,
#53
0!
#54
1!
b10000000000000000000000000000000000001101000000000000000000000000000000000000000000000000000000000000110001010000000100001 &
b10000000000000000000000000000000000001101000000000000000000000000000000000000000000000000000000000000110101010000000100001 &
b101 +
b11 ,
#55
0!
#56
1!
b10000000000000000000000000000000000001110000000000000000000000000000000000000000000000000000000000000110101010000000100001 &
b10000000000000000000000000000000000001110000000000000000000000000000000000000000000000000000000000000111001010000000100001 &
b110 +
b10 ,
#57
0!
#58
1!
b10000000000000000000000000000000000001111000000000000000000000000000000000000000000000000000000000000111001010000000100001 &
b10000000000000000000000000000000000001111000000000000000000000000000000000000000000000000000000000000111101010000000100001 &
b111 +
b1 ,
#59
0!
#60
1!
b10000000000000000000000000000000000010000000000000000000000000000000000000000000000000000000000000000111101010000000100001 &
b10000000000000000000000000000000000010000000000000000000000000000000000000000000000000000000000000001000001010000000100001 &
b0 +
b0 ,
0.
1)
#61
0!
#62
1!
b10000000000000000000000000000000000000000000000000000000000000000000000000000000000000000000000000001000001010000000100001 &
b10000000000000000000000000000000000000000000000000000000000000000000000000000000000000000000000000000000001010000000100001 &
b10000000000000000000000000000000000000000000000000000000000000000000000000000000000000000000000000000000001010000000100000 &
b10000000000000000000000000000000000000000000000000000000000000000000000000000000000000000000000000000000001010000000000000 &
b10000000000000000000000000000000000000000000000000000000000000000000000000000000000000000000000000000000001000000000000000 &
b10000000000000000000000000000000000000000000000000000000000000000000000000000000000000000000000000000000000000000000000000 &
b0 &
#63
0!
b10000000000000000000000000000000001010101000000000000000000000000000000000000000000000000000000000101010100000000000100001 #
1-
1.
#64
1!
b1010101000000000000000000000000000000000000000000000000000000000000000000000000000000000 &
b1010101000000000000000000000000000000000000000000000000000000000101010100000000000000000 &
b1010101000000000000000000000000000000000000000000000000000000000101010100000000000100000 &
b1010101000000000000000000000000000000000000000000000000000000000101010100000000000100001 &
b10000000000000000000000000000000001010101000000000000000000000000000000000000000000000000000000000101010100000000000100001 &
b1 *
b1 +
#65
0!
#66
1!
b1 '
b10 *
b10 +
#67
0!
#68
1!
b10 '
b11 *
b11 +
#69
0!
#70
1!
b11 '
b100 *
b100 +
#71
0!
#72
1!
b100 '
b101 *
b101 +
#73
0!
#74
1!
b101 '
b110 *
b110 +
#75
0!
#76
1!
b110 '
b111 *
b111 +
#77
0!
#78
1!
b111 '
b0 *
b0 +
#79
0!
#80
1!
b0 '
b1 *
b1 +
