rtl/datapath/rtl/exe_stage/tb/tb_mem_unit/dum_file.vcd
$date
	Thu Nov 14 16:24:28 2019
$end
$version
	ModelSim Version 10.5b
$end
$timescale
	1ns
$end

$scope module tb_mem_unit $end

$scope module module_inst $end
$var parameter 2 ! ResetState $end
$var parameter 2 " ReadHead $end
$var parameter 2 # WaitResponse $end
$var wire 1 $ clk_i $end
$var wire 1 % rstn_i $end
$var reg 122 & interface_i [121:0] $end
$var wire 1 ' kill_i $end
$var wire 1 ( flush_i $end
$var wire 1 ) ready_i $end
$var wire 1 * data_i [63] $end
$var wire 1 + data_i [62] $end
$var wire 1 , data_i [61] $end
$var wire 1 - data_i [60] $end
$var wire 1 . data_i [59] $end
$var wire 1 / data_i [58] $end
$var wire 1 0 data_i [57] $end
$var wire 1 1 data_i [56] $end
$var wire 1 2 data_i [55] $end
$var wire 1 3 data_i [54] $end
$var wire 1 4 data_i [53] $end
$var wire 1 5 data_i [52] $end
$var wire 1 6 data_i [51] $end
$var wire 1 7 data_i [50] $end
$var wire 1 8 data_i [49] $end
$var wire 1 9 data_i [48] $end
$var wire 1 : data_i [47] $end
$var wire 1 ; data_i [46] $end
$var wire 1 < data_i [45] $end
$var wire 1 = data_i [44] $end
$var wire 1 > data_i [43] $end
$var wire 1 ? data_i [42] $end
$var wire 1 @ data_i [41] $end
$var wire 1 A data_i [40] $end
$var wire 1 B data_i [39] $end
$var wire 1 C data_i [38] $end
$var wire 1 D data_i [37] $end
$var wire 1 E data_i [36] $end
$var wire 1 F data_i [35] $end
$var wire 1 G data_i [34] $end
$var wire 1 H data_i [33] $end
$var wire 1 I data_i [32] $end
$var wire 1 J data_i [31] $end
$var wire 1 K data_i [30] $end
$var wire 1 L data_i [29] $end
$var wire 1 M data_i [28] $end
$var wire 1 N data_i [27] $end
$var wire 1 O data_i [26] $end
$var wire 1 P data_i [25] $end
$var wire 1 Q data_i [24] $end
$var wire 1 R data_i [23] $end
$var wire 1 S data_i [22] $end
$var wire 1 T data_i [21] $end
$var wire 1 U data_i [20] $end
$var wire 1 V data_i [19] $end
$var wire 1 W data_i [18] $end
$var wire 1 X data_i [17] $end
$var wire 1 Y data_i [16] $end
$var wire 1 Z data_i [15] $end
$var wire 1 [ data_i [14] $end
$var wire 1 \ data_i [13] $end
$var wire 1 ] data_i [12] $end
$var wire 1 ^ data_i [11] $end
$var wire 1 _ data_i [10] $end
$var wire 1 ` data_i [9] $end
$var wire 1 a data_i [8] $end
$var wire 1 b data_i [7] $end
$var wire 1 c data_i [6] $end
$var wire 1 d data_i [5] $end
$var wire 1 e data_i [4] $end
$var wire 1 f data_i [3] $end
$var wire 1 g data_i [2] $end
$var wire 1 h data_i [1] $end
$var wire 1 i data_i [0] $end
$var wire 1 j lock_i $end
$var reg 1 k valid_o $end
$var reg 64 l data_rs1_o [63:0] $end
$var reg 64 m data_rs2_o [63:0] $end
$var reg 7 n instr_type_o [6:0] $end
$var reg 2 o mem_op_o [1:0] $end
$var reg 3 p funct3_o [2:0] $end
$var reg 5 q rd_o [4:0] $end
$var reg 64 r imm_o [63:0] $end
$var reg 64 s data_o [63:0] $end
$var reg 3 t ls_queue_entry_o [2:0] $end
$var reg 1 u ready_o $end
$var reg 1 v lock_o $end
$var reg 1 w full_lsq $end
$var reg 1 x empty_lsq $end
$var reg 1 y flush_to_lsq $end
$var reg 1 z read_head_sq $end
$var reg 122 { instruction_to_dcache [121:0] $end
$var reg 122 | stored_instr_to_dcache [121:0] $end
$var reg 2 } state [1:0] $end
$var reg 2 ~ next_state [1:0] $end

$scope module load_store_queue_inst $end
$var wire 1 $ clk_i $end
$var wire 1 % rstn_i $end
$var reg 122 !! instruction_i [121:0] $end
$var wire 1 "! flush_i $end
$var wire 1 #! read_head_i $end
$var reg 122 $! instruction_o [121:0] $end
$var reg 3 %! ls_queue_entry_o [2:0] $end
$var reg 1 &! full_o $end
$var reg 1 '! empty_o $end
$var reg 3 (! head [2:0] $end
$var reg 3 )! tail [2:0] $end
$var reg 4 *! num [3:0] $end
$var reg 1 +! write_enable $end
$var reg 1 ,! read_enable $end
$var integer 32 -! i $end
$upscope $end
$upscope $end
$upscope $end
$enddefinitions $end
#0
$dumpvars
b0 &
0k
b0 l
b0 m
b0 n
b0 o
b0 p
b0 q
b0 r
b0 s
b0 t
0u
1v
1w
1x
0y
1z
bx0000000000000000000000000000000000000000000000000000000000000000000000000000000000000000000000000000000000000000000000000 {
b0 |
b0 }
b1 ~
b0 !!
bx0000000000000000000000000000000000000000000000000000000000000000000000000000000000000000000000000000000000000000000000000 $!
b0 %!
1&!
1'!
b0 (!
b0 )!
b0 *!
0+!
0,!
b0 !
b1 "
b10 #
b1000 -!
1$
0%
0'
0(
0)
0i
0h
0g
0f
0e
0d
0c
0b
0a
0`
0_
0^
0]
0\
0[
0Z
0Y
0X
0W
0V
0U
0T
0S
0R
0Q
0P
0O
0N
0M
0L
0K
0J
0I
0H
0G
0F
0E
0D
0C
0B
0A
0@
0?
0>
0=
0<
0;
0:
09
08
07
06
05
04
03
02
01
00
0/
0.
0-
0,
0+
0*
0j
0"!
1#!
$end
#1
0$
#2
1$
b0 $!
b0 {
1%
0&!
0w
0v
#3
0$
#4
1$
b1 }
b10000000000000000000000000000000000000001000000000000000000000000000000000000000000000000000000000000000101001010100100001 &
b10000000000000000000000000000000000000001000000000000000000000000000000000000000000000000000000000000000101001010100100001 !!
1+!
1,!
#5
0$
#6
1$
b10000000000000000000000000000000000000001000000000000000000000000000000000000000000000000000000000000000101001010100100001 $!
b1 (!
b1 )!
b10000000000000000000000000000000000000001000000000000000000000000000000000000000000000000000000000000000101001010100100001 {
b10000000000000000000000000000000000000010000000000000000000000000000000000000000000000000000000000000001001001010100100001 &
b10000000000000000000000000000000000000010000000000000000000000000000000000000000000000000000000000000001001001010100100001 !!
1k
b1 l
b1 m
b100101 n
b1 o
b1 p
b1 q
b10 ~
0z
0#!
0,!
1j
#7
0$
#8
1$
b10000000000000000000000000000000000000000000000000000000000000000000000000000000000000000000000000000000101001010100100001 $!
b10000000000000000000000000000000000000000000000000000000000000000000000000000000000000000000000000000000001001010100100001 $!
b10000000000000000000000000000000000000000000000000000000000000000000000000000000000000000000000000000000001001010100100000 $!
b10000000000000000000000000000000000000000000000000000000000000000000000000000000000000000000000000000000001001010100000000 $!
b10000000000000000000000000000000000000000000000000000000000000000000000000000000000000000000000000000000001001010000000000 $!
b10000000000000000000000000000000000000000000000000000000000000000000000000000000000000000000000000000000000000000000000000 $!
b0 $!
b1 %!
b10 )!
b1 *!
b10 }
b10000000000000000000000000000000000000001000000000000000000000000000000000000000000000000000000000000000101001010100100001 |
0'!
b1 t
b0 {
b10000000000000000000000000000000000000011000000000000000000000000000000000000000000000000000000000000001101001010100100001 &
b10000000000000000000000000000000000000011000000000000000000000000000000000000000000000000000000000000001101001010100100001 !!
0x
#9
0$
#10
1$
b10 %!
b11 )!
b10 *!
b10 t
b10000000000000000000000000000000000000100000000000000000000000000000000000000000000000000000000000000010001001010100100001 &
b10000000000000000000000000000000000000100000000000000000000000000000000000000000000000000000000000000010001001010100100001 !!
#11
0$
#12
1$
b11 %!
b100 )!
b11 *!
b11 t
b10000000000000000000000000000000000000101000000000000000000000000000000000000000000000000000000000000010101001010100100001 &
b10000000000000000000000000000000000000101000000000000000000000000000000000000000000000000000000000000010101001010100100001 !!
#13
0$
#14
1$
b100 %!
b101 )!
b100 *!
b100 t
b10000000000000000000000000000000000000110000000000000000000000000000000000000000000000000000000000000011001001010100100001 &
b10000000000000000000000000000000000000110000000000000000000000000000000000000000000000000000000000000011001001010100100001 !!
#15
0$
#16
1$
b101 %!
b110 )!
b101 *!
b101 t
b10000000000000000000000000000000000000111000000000000000000000000000000000000000000000000000000000000011101001010100100001 &
b10000000000000000000000000000000000000111000000000000000000000000000000000000000000000000000000000000011101001010100100001 !!
#17
0$
#18
1$
b110 %!
b111 )!
b110 *!
b110 t
b10000000000000000000000000000000000001000000000000000000000000000000000000000000000000000000000000000100001001010100100001 &
b10000000000000000000000000000000000001000000000000000000000000000000000000000000000000000000000000000100001001010100100001 !!
#19
0$
#20
1$
b111 %!
b0 )!
b111 *!
b111 t
b10000000000000000000000000000000000001001000000000000000000000000000000000000000000000000000000000000100101001010100100001 &
b10000000000000000000000000000000000001001000000000000000000000000000000000000000000000000000000000000100101001010100100001 !!
#21
0$
#22
1$
b0 %!
b1 )!
b1000 *!
0+!
1&!
b0 t
b1001000000000000000000000000000000000000000000000000000000000000100101001010100100001 &
b1001000000000000000000000000000000000000000000000000000000000000100101001010100100001 !!
1w
1v
#23
0$
#24
1$
b1 %!
b1 t
#25
0$
#26
1$
#27
0$
#28
1$
#29
0$
#30
1$
0j
b1 ~
1z
1#!
1,!
#31
0$
#32
1$
b1 $!
b100001 $!
b100100001 $!
b1001010100100001 $!
b10000000000000000000000000000000000000000000000000000000000000000001001010100100001 $!
b10000000000000000000000000000000000000000000000000000000000000001001001010100100001 $!
b10000000000000000000000000000000000000010000000000000000000000000000000000000000000000000000000000000001001001010100100001 $!
b10 (!
b111 *!
b1 }
0&!
b10000000000000000000000000000000000000010000000000000000000000000000000000000000000000000000000000000001001001010100100001 {
0w
0v
1a
1`
1_
1^
1]
1\
1[
1Z
1Q
1P
1O
1N
1M
1L
1K
1J
1A
1@
1?
1>
1=
1<
1;
1:
11
10
1/
1.
1-
1,
1+
1*
b1111111100000000111111110000000011111111000000001111111100000000 s
b10 l
b10 m
b10 ~
0z
0#!
0,!
1j
#33
0$
#34
1$
b10000000000000000000000000000000000000000000000000000000000000000000000000000000000000000000000000000001001001010100100001 $!
b10000000000000000000000000000000000000000000000000000000000000000000000000000000000000000000000000000000001001010100100001 $!
b10000000000000000000000000000000000000000000000000000000000000000000000000000000000000000000000000000000001001010100100000 $!
b10000000000000000000000000000000000000000000000000000000000000000000000000000000000000000000000000000000001001010100000000 $!
b10000000000000000000000000000000000000000000000000000000000000000000000000000000000000000000000000000000001001010000000000 $!
b10000000000000000000000000000000000000000000000000000000000000000000000000000000000000000000000000000000000000000000000000 $!
b0 $!
b10 }
b10000000000000000000000000000000000000010000000000000000000000000000000000000000000000000000000000000001001001010100100001 |
b0 {
#35
0$
#36
1$
0j
b1 ~
1z
1#!
1,!
#37
0$
#38
1$
b1 $!
b100001 $!
b100100001 $!
b1001010100100001 $!
b11000000000000000000000000000000000000000000000000000000000000000001001010100100001 $!
b11000000000000000000000000000000000000000000000000000000000000001101001010100100001 $!
b10000000000000000000000000000000000000011000000000000000000000000000000000000000000000000000000000000001101001010100100001 $!
b11 (!
b110 *!
b1 }
b10000000000000000000000000000000000000011000000000000000000000000000000000000000000000000000000000000001101001010100100001 {
1i
1h
1g
1f
1e
1d
1c
1b
0a
0`
0_
0^
0]
0\
0[
0Z
1Y
1X
1W
1V
1U
1T
1S
1R
0Q
0P
0O
0N
0M
0L
0K
0J
1I
1H
1G
1F
1E
1D
1C
1B
0A
0@
0?
0>
0=
0<
0;
0:
19
18
17
16
15
14
13
12
01
00
0/
0.
0-
0,
0+
0*
b11111111000000001111111100000000111111110000000011111111 s
b11 l
b11 m
b10 ~
0z
0#!
0,!
1j
#39
0$
#40
1$
b10000000000000000000000000000000000000000000000000000000000000000000000000000000000000000000000000000001101001010100100001 $!
b10000000000000000000000000000000000000000000000000000000000000000000000000000000000000000000000000000000001001010100100001 $!
b10000000000000000000000000000000000000000000000000000000000000000000000000000000000000000000000000000000001001010100100000 $!
b10000000000000000000000000000000000000000000000000000000000000000000000000000000000000000000000000000000001001010100000000 $!
b10000000000000000000000000000000000000000000000000000000000000000000000000000000000000000000000000000000001001010000000000 $!
b10000000000000000000000000000000000000000000000000000000000000000000000000000000000000000000000000000000000000000000000000 $!
b0 $!
b10 }
b10000000000000000000000000000000000000011000000000000000000000000000000000000000000000000000000000000001101001010100100001 |
b0 {
#41
0$
#42
1$
0j
b1 ~
1z
1#!
1,!
#43
0$
#44
1$
b1 $!
b100001 $!
b100100001 $!
b1001010100100001 $!
b100000000000000000000000000000000000000000000000000000000000000000001001010100100001 $!
b100000000000000000000000000000000000000000000000000000000000000010001001010100100001 $!
b10000000000000000000000000000000000000100000000000000000000000000000000000000000000000000000000000000010001001010100100001 $!
b100 (!
b101 *!
b1 }
b10000000000000000000000000000000000000100000000000000000000000000000000000000000000000000000000000000010001001010100100001 {
0i
0g
0e
0c
0Y
0W
0U
0S
0I
0G
0E
0C
09
07
05
03
b10101010000000001010101000000000101010100000000010101010 s
b100 l
b100 m
b10 ~
0z
0#!
0,!
1j
#45
0$
#46
1$
b10000000000000000000000000000000000000000000000000000000000000000000000000000000000000000000000000000010001001010100100001 $!
b10000000000000000000000000000000000000000000000000000000000000000000000000000000000000000000000000000000001001010100100001 $!
b10000000000000000000000000000000000000000000000000000000000000000000000000000000000000000000000000000000001001010100100000 $!
b10000000000000000000000000000000000000000000000000000000000000000000000000000000000000000000000000000000001001010100000000 $!
b10000000000000000000000000000000000000000000000000000000000000000000000000000000000000000000000000000000001001010000000000 $!
b10000000000000000000000000000000000000000000000000000000000000000000000000000000000000000000000000000000000000000000000000 $!
b0 $!
b10 }
b10000000000000000000000000000000000000100000000000000000000000000000000000000000000000000000000000000010001001010100100001 |
b0 {
#47
0$
#48
1$
0j
b1 ~
1z
1#!
1,!
#49
0$
#50
1$
b1 $!
b100001 $!
b100100001 $!
b1001010100100001 $!
b101000000000000000000000000000000000000000000000000000000000000000001001010100100001 $!
b101000000000000000000000000000000000000000000000000000000000000010101001010100100001 $!
b10000000000000000000000000000000000000101000000000000000000000000000000000000000000000000000000000000010101001010100100001 $!
b101 (!
b100 *!
b1 }
b10000000000000000000000000000000000000101000000000000000000000000000000000000000000000000000000000000010101001010100100001 {
0h
0f
0d
0b
1`
1^
1\
1Z
0X
0V
0T
0R
1P
1N
1L
1J
0H
0F
0D
0B
1@
1>
1<
1:
08
06
04
02
10
1.
1,
1*
b1010101000000000101010100000000010101010000000001010101000000000 s
b101 l
b101 m
b10 ~
0z
0#!
0,!
1j
#51
0$
#52
1$
b10000000000000000000000000000000000000000000000000000000000000000000000000000000000000000000000000000010101001010100100001 $!
b10000000000000000000000000000000000000000000000000000000000000000000000000000000000000000000000000000000001001010100100001 $!
b10000000000000000000000000000000000000000000000000000000000000000000000000000000000000000000000000000000001001010100100000 $!
b10000000000000000000000000000000000000000000000000000000000000000000000000000000000000000000000000000000001001010100000000 $!
b10000000000000000000000000000000000000000000000000000000000000000000000000000000000000000000000000000000001001010000000000 $!
b10000000000000000000000000000000000000000000000000000000000000000000000000000000000000000000000000000000000000000000000000 $!
b0 $!
b10 }
b10000000000000000000000000000000000000101000000000000000000000000000000000000000000000000000000000000010101001010100100001 |
b0 {
